digraph {
compound=true;
node [style="terminal"];
edge [style="-latex, very thick"];
"0x145b840"[texlbl="$\begin{matrix}\text{function TopDownMerge(in float[] A0, in float[] A1, inout float[] B)}\end{matrix}$"style="nonterminal"];
"0x145b950"[texlbl="$\begin{matrix}\text{long i0, i1, j, size\_a0, size\_a1, max\_iterations;}\\ \{0\}\end{matrix}$"];
"0x2a09ac0"[texlbl="$\begin{matrix}\text{ArraySize(size\_a1, A1)}\\ \{0\}\end{matrix}$"];
"0x2a09ce0"[texlbl="$\begin{matrix}\text{max\_iterations <- (size\_a0+size\_a1)}\\ \{0\}\end{matrix}$"];
subgraph "\text{while ((j<max\_iterations))}"{
"0x2a098a0"[texlbl="$\begin{matrix}\text{while ((j<max\_iterations))}\end{matrix}$"style="nonterminal"];
subgraph "\text{if (((i0<size\_a0)\&((i1>=size\_a1)|(A0[i0]<=A1[i1]))))} \\ FALSE"{
"0x2a09350"[texlbl="$\begin{matrix}\text{if (((i0<size\_a0)\&((i1>=size\_a1)|(A0[i0]<=A1[i1]))))} \\ FALSE\end{matrix}$"style="nonterminal"];
"0x2a09570"[texlbl="$\begin{matrix}\text{B[j] <- A1[i1]}\\ \{0\}\end{matrix}$"];
"0x2a0a9c0"[texlbl="$\begin{matrix}\text{i1 <- (i1+1)}\\ \{0\}\end{matrix}$"];
"0x2a09570"->"0x2a0a9c0";
"0x2a09350"->"0x2a09570";
}
"0x2a09790" -> "0x2a09350"[style="-o, dashed"];
subgraph "\text{if (((i0<size\_a0)\&((i1>=size\_a1)|(A0[i0]<=A1[i1]))))} \\ TRUE"{
"0x2a09df0"[texlbl="$\begin{matrix}\text{if (((i0<size\_a0)\&((i1>=size\_a1)|(A0[i0]<=A1[i1]))))} \\ TRUE\end{matrix}$"style="nonterminal"];
"0x2a0a010"[texlbl="$\begin{matrix}\text{B[j] <- A0[i0]}\\ \{0\}\end{matrix}$"];
"0x2a0a120"[texlbl="$\begin{matrix}\text{i0 <- (i0+1)}\\ \{0\}\end{matrix}$"];
"0x2a0a010"->"0x2a0a120";
"0x2a09df0"->"0x2a0a010";
}
"0x2a09790" -> "0x2a09df0"[style="-o, dashed"];
"0x2a09790"[texlbl="$\begin{matrix}\text{if (((i0<size\_a0)\&((i1>=size\_a1)|(A0[i0]<=A1[i1]))))}\\ \{0.031632\}\end{matrix}$"];
"0x2a0a690"[texlbl="$\begin{matrix}\text{j <- (j+1)}\\ \{0\}\end{matrix}$"];
"0x2a09790"->"0x2a0a690";
"0x2a098a0"->"0x2a09790";
}
"0x2a099b0" -> "0x2a098a0"[style="-o, dashed"];
"0x2a099b0"[texlbl="$\begin{matrix}\text{while ((j<max\_iterations))}\\ \{0.810714\}\end{matrix}$"];
"0x2a09ce0"->"0x2a099b0";
"0x2a09ac0"->"0x2a09ce0";
"0x145b950"->"0x2a09ac0";
"0x2a09bd0"[texlbl="$\begin{matrix}\text{i0 <- 0}\\ \{0\}\end{matrix}$"];
"0x2a09bd0"->"0x2a099b0";
"0x145b950"->"0x2a09bd0";
"0x2a09680"[texlbl="$\begin{matrix}\text{ArraySize(size\_a0, A0)}\\ \{0\}\end{matrix}$"];
"0x2a09680"->"0x2a09ce0";
"0x145b950"->"0x2a09680";
"0x2a09f00"[texlbl="$\begin{matrix}\text{i1 <- 0}\\ \{0\}\end{matrix}$"];
"0x2a09f00"->"0x2a099b0";
"0x145b950"->"0x2a09f00";
"0x2a09460"[texlbl="$\begin{matrix}\text{j <- 0}\\ \{0\}\end{matrix}$"];
"0x2a09460"->"0x2a099b0";
"0x145b950"->"0x2a09460";
"0x145b840"->"0x145b950";
}